data/tektronix_20101124_not_sure/ALL0016/F0016MTH.CSV

Record Length,1.024000e+03,,          0.00000, -65.38970,
Sample Interval,4.882813e+03,,       4882.81250, -71.38970,
Trigger Point,0.000000000000e+00,,       9765.62500, -78.98970,
,,,      14648.43750, -86.98970,
,,,      19531.25000, -81.78970,
,,,      24414.06250, -80.58970,
Source,MATH,,      29296.87500, -86.98970,
Vertical Units,dB,,      34179.68750, -80.58970,
Vertical Scale,1.000000e+01,,      39062.50000, -86.98970,
Vertical Offset,0.000000e+00,,      43945.31250, -86.98970,
Horizontal Units,Hz,,      48828.12500, -83.78970,
Horizontal Scale,5.000000e+05,,      53710.93750, -80.58970,
Pt Fmt,Y,,      58593.75000, -86.98970,
Yzero,-4.698970e+01,,      63476.56250, -85.78970,
Probe Atten,1.000000e+00,,      68359.37500, -85.78970,
Model Number,TDS2002B,,      73242.18750, -86.98970,
Serial Number,C054552,,      78125.00000, -80.58970,
Firmware Version,FV:v22.11,,      83007.81250, -83.78970,
,,,87890.62500, -86.98970,
,,,92773.43750, -83.38970,
,,,97656.25000, -75.78970,
,,,102539.06250, -79.78970,
,,,107421.87500, -83.38970,
,,,112304.68750, -83.38970,
,,,117187.50000, -83.38970,
,,,122070.31250, -81.78970,
,,,126953.12500, -86.98970,
,,,131835.93750, -86.98970,
,,,136718.75000, -85.78970,
,,,141601.56250, -86.98970,
,,,146484.37500, -86.98970,
,,,151367.18750, -86.98970,
,,,156250.00000, -85.78970,
,,,161132.81250, -85.78970,
,,,166015.62500, -86.98970,
,,,170898.43750, -86.98970,
,,,175781.25000, -86.98970,
,,,180664.06250, -86.98970,
,,,185546.87500, -86.98970,
,,,190429.68750, -82.98970,
,,,195312.50000, -85.78970,
,,,200195.31250, -86.98970,
,,,205078.12500, -82.98970,
,,,209960.93750, -78.98970,
,,,214843.75000, -85.78970,
,,,219726.56250, -86.98970,
,,,224609.37500, -82.98970,
,,,229492.18750, -83.38970,
,,,234375.00000, -82.98970,
,,,239257.81250, -82.98970,
,,,244140.62500, -82.98970,
,,,249023.43750, -83.78970,
,,,253906.25000, -82.98970,
,,,258789.06250, -83.78970,
,,,263671.87500, -86.98970,
,,,268554.68750, -86.98970,
,,,273437.50000, -85.78970,
,,,278320.31250, -86.98970,
,,,283203.12500, -83.38970,
,,,288085.93750, -80.98970,
,,,292968.75000, -81.78970,
,,,297851.56250, -78.98970,
,,,302734.37500, -71.78970,
,,,307617.18750, -74.98970,
,,,312500.00000, -86.98970,
,,,317382.81250, -85.78970,
,,,322265.62500, -86.98970,
,,,327148.43750, -86.98970,
,,,332031.25000, -83.78970,
,,,336914.06250, -83.78970,
,,,341796.87500, -82.98970,
,,,346679.68750, -86.98970,
,,,351562.50000, -82.98970,
,,,356445.31250, -75.78970,
,,,361328.12500, -78.98970,
,,,366210.93750, -86.98970,
,,,371093.75000, -86.98970,
,,,375976.56250, -85.78970,
,,,380859.37500, -85.78970,
,,,385742.18750, -86.98970,
,,,390625.00000, -78.98970,
,,,395507.81250, -74.18970,
,,,400390.62500, -86.98970,
,,,405273.43750, -81.78970,
,,,410156.25000, -81.78970,
,,,415039.06250, -85.78970,
,,,419921.87500, -86.98970,
,,,424804.68750, -85.78970,
,,,429687.50000, -78.98970,
,,,434570.31250, -81.78970,
,,,439453.12500, -86.98970,
,,,444335.93750, -86.98970,
,,,449218.75000, -85.78970,
,,,454101.56250, -83.38970,
,,,458984.37500, -85.78970,
,,,463867.18750, -82.98970,
,,,468750.00000, -81.78970,
,,,473632.81250, -73.78970,
,,,478515.62500, -69.78970,
,,,483398.43750, -64.58970,
,,,488281.25000, -54.18970,
,,,493164.06250, -35.78970,
,,,498046.87500, -23.38970,
,,,502929.68750, -24.58970,
,,,507812.50000, -40.58970,
,,,512695.31250, -56.18970,
,,,517578.12500, -64.98970,
,,,522460.93750, -74.98970,
,,,527343.75000, -72.98970,
,,,532226.56250, -79.78970,
,,,537109.37500, -83.38970,
,,,541992.18750, -86.98970,
,,,546875.00000, -80.58970,
,,,551757.81250, -79.78970,
,,,556640.62500, -78.98970,
,,,561523.43750, -81.78970,
,,,566406.25000, -85.78970,
,,,571289.06250, -81.78970,
,,,576171.87500, -85.78970,
,,,581054.68750, -78.18970,
,,,585937.50000, -86.98970,
,,,590820.31250, -82.98970,
,,,595703.12500, -78.98970,
,,,600585.93750, -85.78970,
,,,605468.75000, -71.78970,
,,,610351.56250, -77.38970,
,,,615234.37500, -77.78970,
,,,620117.18750, -78.98970,
,,,625000.00000, -80.58970,
,,,629882.81250, -82.98970,
,,,634765.62500, -78.98970,
,,,639648.43750, -86.98970,
,,,644531.25000, -86.98970,
,,,649414.06250, -85.78970,
,,,654296.87500, -83.38970,
,,,659179.68750, -86.98970,
,,,664062.50000, -86.98970,
,,,668945.31250, -86.98970,
,,,673828.12500, -85.78970,
,,,678710.93750, -83.38970,
,,,683593.75000, -86.98970,
,,,688476.56250, -83.38970,
,,,693359.37500, -81.78970,
,,,698242.18750, -80.58970,
,,,703125.00000, -86.98970,
,,,708007.81250, -78.98970,
,,,712890.62500, -75.78970,
,,,717773.43750, -78.98970,
,,,722656.25000, -86.98970,
,,,727539.06250, -86.98970,
,,,732421.87500, -80.58970,
,,,737304.68750, -82.98970,
,,,742187.50000, -86.98970,
,,,747070.31250, -86.98970,
,,,751953.12500, -86.98970,
,,,756835.93750, -85.78970,
,,,761718.75000, -85.78970,
,,,766601.56250, -86.98970,
,,,771484.37500, -81.78970,
,,,776367.18750, -78.98970,
,,,781250.00000, -80.58970,
,,,786132.81250, -82.98970,
,,,791015.62500, -82.98970,
,,,795898.43750, -86.98970,
,,,800781.25000, -86.98970,
,,,805664.06250, -71.78970,
,,,810546.87500, -72.18970,
,,,815429.68750, -80.98970,
,,,820312.50000, -82.98970,
,,,825195.31250, -85.78970,
,,,830078.12500, -85.78970,
,,,834960.93750, -81.78970,
,,,839843.75000, -80.58970,
,,,844726.56250, -80.58970,
,,,849609.37500, -81.78970,
,,,854492.18750, -85.78970,
,,,859375.00000, -86.98970,
,,,864257.81250, -83.78970,
,,,869140.62500, -86.98970,
,,,874023.43750, -86.98970,
,,,878906.25000, -86.98970,
,,,883789.06250, -86.98970,
,,,888671.87500, -83.78970,
,,,893554.68750, -86.98970,
,,,898437.50000, -82.98970,
,,,903320.31250, -79.78970,
,,,908203.12500, -75.38970,
,,,913085.93750, -78.98970,
,,,917968.75000, -86.98970,
,,,922851.56250, -86.98970,
,,,927734.37500, -86.98970,
,,,932617.18750, -81.78970,
,,,937500.00000, -83.78970,
,,,942382.81250, -85.78970,
,,,947265.62500, -86.98970,
,,,952148.43750, -85.78970,
,,,957031.25000, -80.98970,
,,,961914.06250, -82.98970,
,,,966796.87500, -86.98970,
,,,971679.68750, -85.78970,
,,,976562.50000, -83.78970,
,,,981445.31250, -85.78970,
,,,986328.12500, -86.98970,
,,,991210.93750, -86.98970,
,,,996093.75000, -69.78970,
,,,1000976.56250, -64.98970,
,,,1005859.37500, -73.78970,
,,,1010742.18750, -77.78970,
,,,1015625.00000, -81.78970,
,,,1020507.81250, -85.78970,
,,,1025390.62500, -86.98970,
,,,1030273.43750, -85.78970,
,,,1035156.25000, -86.98970,
,,,1040039.06250, -85.78970,
,,,1044921.87500, -85.78970,
,,,1049804.68750, -86.98970,
,,,1054687.50000, -86.98970,
,,,1059570.31250, -85.78970,
,,,1064453.12500, -86.98970,
,,,1069335.93750, -86.98970,
,,,1074218.75000, -83.38970,
,,,1079101.56250, -83.38970,
,,,1083984.37500, -83.78970,
,,,1088867.18750, -80.58970,
,,,1093750.00000, -82.98970,
,,,1098632.81250, -86.98970,
,,,1103515.62500, -78.98970,
,,,1108398.43750, -70.18970,
,,,1113281.25000, -71.38970,
,,,1118164.06250, -86.98970,
,,,1123046.87500, -85.78970,
,,,1127929.68750, -85.78970,
,,,1132812.50000, -86.98970,
,,,1137695.31250, -86.98970,
,,,1142578.12500, -86.98970,
,,,1147460.93750, -86.98970,
,,,1152343.75000, -86.98970,
,,,1157226.56250, -86.98970,
,,,1162109.37500, -86.98970,
,,,1166992.18750, -86.98970,
,,,1171875.00000, -86.98970,
,,,1176757.81250, -86.98970,
,,,1181640.62500, -85.78970,
,,,1186523.43750, -85.78970,
,,,1191406.25000, -86.98970,
,,,1196289.06250, -86.98970,
,,,1201171.87500, -86.98970,
,,,1206054.68750, -83.38970,
,,,1210937.50000, -70.98970,
,,,1215820.31250, -75.78970,
,,,1220703.12500, -85.78970,
,,,1225585.93750, -86.98970,
,,,1230468.75000, -86.98970,
,,,1235351.56250, -85.78970,
,,,1240234.37500, -85.78970,
,,,1245117.18750, -86.98970,
,,,1250000.00000, -83.38970,
,,,1254882.81250, -86.98970,
,,,1259765.62500, -85.78970,
,,,1264648.43750, -81.78970,
,,,1269531.25000, -85.78970,
,,,1274414.06250, -86.98970,
,,,1279296.87500, -86.98970,
,,,1284179.68750, -85.78970,
,,,1289062.50000, -80.58970,
,,,1293945.31250, -82.98970,
,,,1298828.12500, -80.58970,
,,,1303710.93750, -83.38970,
,,,1308593.75000, -86.98970,
,,,1313476.56250, -76.98970,
,,,1318359.37500, -74.98970,
,,,1323242.18750, -74.58970,
,,,1328125.00000, -76.18970,
,,,1333007.81250, -80.58970,
,,,1337890.62500, -86.98970,
,,,1342773.43750, -86.98970,
,,,1347656.25000, -86.98970,
,,,1352539.06250, -86.98970,
,,,1357421.87500, -86.98970,
,,,1362304.68750, -86.98970,
,,,1367187.50000, -79.78970,
,,,1372070.31250, -82.98970,
,,,1376953.12500, -86.98970,
,,,1381835.93750, -81.78970,
,,,1386718.75000, -78.98970,
,,,1391601.56250, -82.98970,
,,,1396484.37500, -86.98970,
,,,1401367.18750, -83.78970,
,,,1406250.00000, -83.78970,
,,,1411132.81250, -86.98970,
,,,1416015.62500, -86.98970,
,,,1420898.43750, -83.38970,
,,,1425781.25000, -82.98970,
,,,1430664.06250, -86.98970,
,,,1435546.87500, -86.98970,
,,,1440429.68750, -85.78970,
,,,1445312.50000, -86.98970,
,,,1450195.31250, -82.98970,
,,,1455078.12500, -83.78970,
,,,1459960.93750, -85.78970,
,,,1464843.75000, -82.98970,
,,,1469726.56250, -78.18970,
,,,1474609.37500, -83.38970,
,,,1479492.18750, -83.78970,
,,,1484375.00000, -78.18970,
,,,1489257.81250, -72.58970,
,,,1494140.62500, -51.78970,
,,,1499023.43750, -42.18970,
,,,1503906.25000, -45.38970,
,,,1508789.06250, -67.78970,
,,,1513671.87500, -75.78970,
,,,1518554.68750, -86.98970,
,,,1523437.50000, -86.98970,
,,,1528320.31250, -82.98970,
,,,1533203.12500, -81.78970,
,,,1538085.93750, -86.98970,
,,,1542968.75000, -85.78970,
,,,1547851.56250, -86.98970,
,,,1552734.37500, -86.98970,
,,,1557617.18750, -86.98970,
,,,1562500.00000, -85.78970,
,,,1567382.81250, -82.98970,
,,,1572265.62500, -86.98970,
,,,1577148.43750, -86.98970,
,,,1582031.25000, -81.78970,
,,,1586914.06250, -78.18970,
,,,1591796.87500, -78.98970,
,,,1596679.68750, -81.78970,
,,,1601562.50000, -78.98970,
,,,1606445.31250, -77.38970,
,,,1611328.12500, -82.98970,
,,,1616210.93750, -83.78970,
,,,1621093.75000, -80.98970,
,,,1625976.56250, -83.38970,
,,,1630859.37500, -86.98970,
,,,1635742.18750, -86.98970,
,,,1640625.00000, -86.98970,
,,,1645507.81250, -86.98970,
,,,1650390.62500, -85.78970,
,,,1655273.43750, -86.98970,
,,,1660156.25000, -86.98970,
,,,1665039.06250, -86.98970,
,,,1669921.87500, -86.98970,
,,,1674804.68750, -86.98970,
,,,1679687.50000, -86.98970,
,,,1684570.31250, -80.98970,
,,,1689453.12500, -86.98970,
,,,1694335.93750, -85.78970,
,,,1699218.75000, -79.78970,
,,,1704101.56250, -78.98970,
,,,1708984.37500, -74.98970,
,,,1713867.18750, -74.18970,
,,,1718750.00000, -79.78970,
,,,1723632.81250, -82.98970,
,,,1728515.62500, -82.98970,
,,,1733398.43750, -86.98970,
,,,1738281.25000, -86.98970,
,,,1743164.06250, -86.98970,
,,,1748046.87500, -85.78970,
,,,1752929.68750, -86.98970,
,,,1757812.50000, -86.98970,
,,,1762695.31250, -86.98970,
,,,1767578.12500, -86.98970,
,,,1772460.93750, -86.98970,
,,,1777343.75000, -85.78970,
,,,1782226.56250, -82.98970,
,,,1787109.37500, -82.98970,
,,,1791992.18750, -85.78970,
,,,1796875.00000, -86.98970,
,,,1801757.81250, -86.98970,
,,,1806640.62500, -86.98970,
,,,1811523.43750, -86.98970,
,,,1816406.25000, -86.98970,
,,,1821289.06250, -86.98970,
,,,1826171.87500, -86.98970,
,,,1831054.68750, -85.78970,
,,,1835937.50000, -86.98970,
,,,1840820.31250, -82.98970,
,,,1845703.12500, -82.98970,
,,,1850585.93750, -80.58970,
,,,1855468.75000, -83.78970,
,,,1860351.56250, -86.98970,
,,,1865234.37500, -86.98970,
,,,1870117.18750, -86.98970,
,,,1875000.00000, -86.98970,
,,,1879882.81250, -86.98970,
,,,1884765.62500, -86.98970,
,,,1889648.43750, -85.78970,
,,,1894531.25000, -83.78970,
,,,1899414.06250, -82.98970,
,,,1904296.87500, -80.58970,
,,,1909179.68750, -83.38970,
,,,1914062.50000, -85.78970,
,,,1918945.31250, -86.98970,
,,,1923828.12500, -81.78970,
,,,1928710.93750, -86.98970,
,,,1933593.75000, -83.78970,
,,,1938476.56250, -86.98970,
,,,1943359.37500, -83.78970,
,,,1948242.18750, -86.98970,
,,,1953125.00000, -86.98970,
,,,1958007.81250, -86.98970,
,,,1962890.62500, -82.98970,
,,,1967773.43750, -80.58970,
,,,1972656.25000, -80.98970,
,,,1977539.06250, -82.98970,
,,,1982421.87500, -85.78970,
,,,1987304.68750, -85.78970,
,,,1992187.50000, -82.98970,
,,,1997070.31250, -73.78970,
,,,2001953.12500, -72.58970,
,,,2006835.93750, -80.98970,
,,,2011718.75000, -86.98970,
,,,2016601.56250, -78.98970,
,,,2021484.37500, -76.98970,
,,,2026367.18750, -82.98970,
,,,2031250.00000, -86.98970,
,,,2036132.81250, -85.78970,
,,,2041015.62500, -80.98970,
,,,2045898.43750, -83.78970,
,,,2050781.25000, -85.78970,
,,,2055664.06250, -86.98970,
,,,2060546.87500, -86.98970,
,,,2065429.68750, -86.98970,
,,,2070312.50000, -86.98970,
,,,2075195.31250, -86.98970,
,,,2080078.12500, -86.98970,
,,,2084960.93750, -86.98970,
,,,2089843.75000, -86.98970,
,,,2094726.56250, -85.78970,
,,,2099609.37500, -86.98970,
,,,2104492.18750, -86.98970,
,,,2109375.00000, -85.78970,
,,,2114257.81250, -86.98970,
,,,2119140.62500, -80.58970,
,,,2124023.43750, -78.98970,
,,,2128906.25000, -80.58970,
,,,2133789.06250, -86.98970,
,,,2138671.87500, -85.78970,
,,,2143554.68750, -81.78970,
,,,2148437.50000, -86.98970,
,,,2153320.31250, -86.98970,
,,,2158203.12500, -86.98970,
,,,2163085.93750, -85.78970,
,,,2167968.75000, -86.98970,
,,,2172851.56250, -86.98970,
,,,2177734.37500, -82.98970,
,,,2182617.18750, -80.98970,
,,,2187500.00000, -85.78970,
,,,2192382.81250, -86.98970,
,,,2197265.62500, -86.98970,
,,,2202148.43750, -86.98970,
,,,2207031.25000, -85.78970,
,,,2211914.06250, -78.98970,
,,,2216796.87500, -78.98970,
,,,2221679.68750, -77.38970,
,,,2226562.50000, -80.58970,
,,,2231445.31250, -83.78970,
,,,2236328.12500, -86.98970,
,,,2241210.93750, -86.98970,
,,,2246093.75000, -85.78970,
,,,2250976.56250, -81.78970,
,,,2255859.37500, -79.78970,
,,,2260742.18750, -80.58970,
,,,2265625.00000, -78.98970,
,,,2270507.81250, -82.98970,
,,,2275390.62500, -85.78970,
,,,2280273.43750, -86.98970,
,,,2285156.25000, -86.98970,
,,,2290039.06250, -81.78970,
,,,2294921.87500, -81.78970,
,,,2299804.68750, -82.98970,
,,,2304687.50000, -85.78970,
,,,2309570.31250, -81.78970,
,,,2314453.12500, -82.98970,
,,,2319335.93750, -82.98970,
,,,2324218.75000, -75.78970,
,,,2329101.56250, -86.98970,
,,,2333984.37500, -85.78970,
,,,2338867.18750, -86.98970,
,,,2343750.00000, -86.98970,
,,,2348632.81250, -78.98970,
,,,2353515.62500, -78.98970,
,,,2358398.43750, -83.38970,
,,,2363281.25000, -85.78970,
,,,2368164.06250, -86.98970,
,,,2373046.87500, -86.98970,
,,,2377929.68750, -86.98970,
,,,2382812.50000, -86.98970,
,,,2387695.31250, -86.98970,
,,,2392578.12500, -82.98970,
,,,2397460.93750, -83.38970,
,,,2402343.75000, -82.98970,
,,,2407226.56250, -86.98970,
,,,2412109.37500, -82.98970,
,,,2416992.18750, -86.98970,
,,,2421875.00000, -74.98970,
,,,2426757.81250, -74.18970,
,,,2431640.62500, -86.98970,
,,,2436523.43750, -86.98970,
,,,2441406.25000, -85.78970,
,,,2446289.06250, -82.98970,
,,,2451171.87500, -81.78970,
,,,2456054.68750, -85.78970,
,,,2460937.50000, -80.58970,
,,,2465820.31250, -82.98970,
,,,2470703.12500, -86.98970,
,,,2475585.93750, -86.98970,
,,,2480468.75000, -86.98970,
,,,2485351.56250, -85.78970,
,,,2490234.37500, -82.98970,
,,,2495117.18750, -57.38970,
,,,2500000.00000, -50.58970,
,,,2504882.81250, -56.18970,
,,,2509765.62500, -86.98970,
,,,2514648.43750, -85.78970,
,,,2519531.25000, -86.98970,
,,,2524414.06250, -86.98970,
,,,2529296.87500, -86.98970,
,,,2534179.68750, -86.98970,
,,,2539062.50000, -86.98970,
,,,2543945.31250, -86.98970,
,,,2548828.12500, -86.98970,
,,,2553710.93750, -86.98970,
,,,2558593.75000, -86.98970,
,,,2563476.56250, -85.78970,
,,,2568359.37500, -82.98970,
,,,2573242.18750, -86.98970,
,,,2578125.00000, -86.98970,
,,,2583007.81250, -86.98970,
,,,2587890.62500, -85.78970,
,,,2592773.43750, -86.98970,
,,,2597656.25000, -81.78970,
,,,2602539.06250, -85.78970,
,,,2607421.87500, -86.98970,
,,,2612304.68750, -86.98970,
,,,2617187.50000, -86.98970,
,,,2622070.31250, -85.78970,
,,,2626953.12500, -81.78970,
,,,2631835.93750, -85.78970,
,,,2636718.75000, -86.98970,
,,,2641601.56250, -86.98970,
,,,2646484.37500, -86.98970,
,,,2651367.18750, -82.98970,
,,,2656250.00000, -80.58970,
,,,2661132.81250, -80.58970,
,,,2666015.62500, -77.38970,
,,,2670898.43750, -77.38970,
,,,2675781.25000, -79.78970,
,,,2680664.06250, -85.78970,
,,,2685546.87500, -86.98970,
,,,2690429.68750, -85.78970,
,,,2695312.50000, -86.98970,
,,,2700195.31250, -86.98970,
,,,2705078.12500, -85.78970,
,,,2709960.93750, -86.98970,
,,,2714843.75000, -86.98970,
,,,2719726.56250, -83.38970,
,,,2724609.37500, -83.78970,
,,,2729492.18750, -80.58970,
,,,2734375.00000, -82.98970,
,,,2739257.81250, -86.98970,
,,,2744140.62500, -83.78970,
,,,2749023.43750, -86.98970,
,,,2753906.25000, -85.78970,
,,,2758789.06250, -81.78970,
,,,2763671.87500, -81.78970,
,,,2768554.68750, -81.78970,
,,,2773437.50000, -86.98970,
,,,2778320.31250, -82.98970,
,,,2783203.12500, -78.98970,
,,,2788085.93750, -81.78970,
,,,2792968.75000, -80.58970,
,,,2797851.56250, -81.78970,
,,,2802734.37500, -85.78970,
,,,2807617.18750, -86.98970,
,,,2812500.00000, -86.98970,
,,,2817382.81250, -85.78970,
,,,2822265.62500, -83.78970,
,,,2827148.43750, -75.78970,
,,,2832031.25000, -78.98970,
,,,2836914.06250, -86.98970,
,,,2841796.87500, -85.78970,
,,,2846679.68750, -86.98970,
,,,2851562.50000, -85.78970,
,,,2856445.31250, -86.98970,
,,,2861328.12500, -86.98970,
,,,2866210.93750, -86.98970,
,,,2871093.75000, -86.98970,
,,,2875976.56250, -86.98970,
,,,2880859.37500, -86.98970,
,,,2885742.18750, -82.98970,
,,,2890625.00000, -83.78970,
,,,2895507.81250, -85.78970,
,,,2900390.62500, -86.98970,
,,,2905273.43750, -86.98970,
,,,2910156.25000, -85.78970,
,,,2915039.06250, -86.98970,
,,,2919921.87500, -82.98970,
,,,2924804.68750, -76.98970,
,,,2929687.50000, -76.58970,
,,,2934570.31250, -79.78970,
,,,2939453.12500, -80.98970,
,,,2944335.93750, -85.78970,
,,,2949218.75000, -86.98970,
,,,2954101.56250, -80.58970,
,,,2958984.37500, -80.58970,
,,,2963867.18750, -85.78970,
,,,2968750.00000, -86.98970,
,,,2973632.81250, -86.98970,
,,,2978515.62500, -86.98970,
,,,2983398.43750, -86.98970,
,,,2988281.25000, -85.78970,
,,,2993164.06250, -85.78970,
,,,2998046.87500, -77.78970,
,,,3002929.68750, -75.78970,
,,,3007812.50000, -83.78970,
,,,3012695.31250, -86.98970,
,,,3017578.12500, -80.58970,
,,,3022460.93750, -82.98970,
,,,3027343.75000, -83.38970,
,,,3032226.56250, -85.78970,
,,,3037109.37500, -85.78970,
,,,3041992.18750, -86.98970,
,,,3046875.00000, -86.98970,
,,,3051757.81250, -86.98970,
,,,3056640.62500, -86.98970,
,,,3061523.43750, -86.98970,
,,,3066406.25000, -86.98970,
,,,3071289.06250, -86.98970,
,,,3076171.87500, -86.98970,
,,,3081054.68750, -86.98970,
,,,3085937.50000, -86.98970,
,,,3090820.31250, -86.98970,
,,,3095703.12500, -86.98970,
,,,3100585.93750, -86.98970,
,,,3105468.75000, -86.98970,
,,,3110351.56250, -86.98970,
,,,3115234.37500, -86.98970,
,,,3120117.18750, -86.98970,
,,,3125000.00000, -83.38970,
,,,3129882.81250, -86.98970,
,,,3134765.62500, -86.98970,
,,,3139648.43750, -86.98970,
,,,3144531.25000, -85.78970,
,,,3149414.06250, -78.98970,
,,,3154296.87500, -86.98970,
,,,3159179.68750, -86.98970,
,,,3164062.50000, -86.98970,
,,,3168945.31250, -85.78970,
,,,3173828.12500, -76.98970,
,,,3178710.93750, -79.78970,
,,,3183593.75000, -83.78970,
,,,3188476.56250, -86.98970,
,,,3193359.37500, -86.98970,
,,,3198242.18750, -86.98970,
,,,3203125.00000, -85.78970,
,,,3208007.81250, -86.98970,
,,,3212890.62500, -81.78970,
,,,3217773.43750, -81.78970,
,,,3222656.25000, -86.98970,
,,,3227539.06250, -80.58970,
,,,3232421.87500, -82.98970,
,,,3237304.68750, -86.98970,
,,,3242187.50000, -83.38970,
,,,3247070.31250, -86.98970,
,,,3251953.12500, -83.78970,
,,,3256835.93750, -86.98970,
,,,3261718.75000, -86.98970,
,,,3266601.56250, -86.98970,
,,,3271484.37500, -86.98970,
,,,3276367.18750, -82.98970,
,,,3281250.00000, -83.38970,
,,,3286132.81250, -86.98970,
,,,3291015.62500, -85.78970,
,,,3295898.43750, -85.78970,
,,,3300781.25000, -86.98970,
,,,3305664.06250, -86.98970,
,,,3310546.87500, -85.78970,
,,,3315429.68750, -85.78970,
,,,3320312.50000, -82.98970,
,,,3325195.31250, -85.78970,
